{
    "port": 8080,
    "jwtSecret": "Project Jupyter",
    "mongoUri": "mongodb+srv://Andrew:xSw23eDc@instadata-rrzt7.gcp.mongodb.net/instagram?retryWrites=true&w=majority",
    "AWS_ACCESS_KEY": "AKIAI7UMEZSR55FWM5NQ",
    "AWS_SECRET_ACCESS_KEY": "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",
    "REGION": "eu-west-3",
    "BUCKET": "instagram-pro",
    "SENDGRID_KEY": "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"
}
